{
    "title": "Bullsender",
    "description": "Bullsender API integration",
    "credentials": {
        "fields": {
            "api_key": {
                "viewClass": "TextFieldView",
                "label": "API key",
                "placeholder": "Paste your API key here",
                "required": true
            }
        }
    },
    "actions": {
        "add_subscriber": {
            "title": "Add subscriber",
            "main": "./lib/actions/add_subscriber.js",
            "dynamicMetadata": true,
            "fields": {
                "list": {
                    "viewClass": "SelectView",
                    "prompt": "Select your Bullsender List",
                    "label": "List",
                    "required": true,
                    "model": "getUserLists"
                }
            }
        }
    }
}